-----------------------------------------------
PARA FORMADO DE MONEDAS EN JSCRIPT
--------------------------------------------------------
$this->docexcel->getActiveSheet()->getStyle("P$fila:P$fila")->getNumberFormat()->setFormatCode(PHPExcel_Style_NumberFormat :: FORMAT_NUMBER_COMMA_SEPARATED1);